<?xml version="1.0" encoding="utf-8"?>
<!-- Generator: Adobe Illustrator 16.0.3, SVG Export Plug-In . SVG Version: 6.00 Build 0)  -->
<!DOCTYPE svg PUBLIC "-//W3C//DTD SVG 1.1//EN" "http://www.w3.org/Graphics/SVG/1.1/DTD/svg11.dtd">
<svg version="1.1" id="Capa_1" xmlns="http://www.w3.org/2000/svg" xmlns:xlink="http://www.w3.org/1999/xlink" x="0px" y="0px"
	 width="200px" height="160px" viewBox="0 0 200 160" enable-background="new 0 0 200 160" xml:space="preserve">
<g>
	<path fill="none" d="M169.563,52.591c0.858,0.003,2.792-0.545,2.794-1.228c0.003-0.682-1.761-1.422-2.783-1.222
		c0,0-2.03,0.096-2.035,1.246C167.535,52.532,168.703,52.587,169.563,52.591z"/>
	<path fill="none" d="M59.634,49.667c-1.019-0.208-2.785,0.516-2.787,1.198c-0.003,0.684,1.92,1.248,2.777,1.252
		c0.865,0.003,2.034-0.041,2.039-1.187C61.668,49.782,59.634,49.667,59.634,49.667z"/>
	<path fill="#181923" d="M167.075,66.499c-0.042,0.297-0.089,0.597-0.137,0.893h2.514c0.051-0.292,0.104-0.588,0.159-0.893H167.075z
		"/>
	<path fill="#181923" d="M62.068,66.499h-2.519c0.053,0.305,0.103,0.605,0.149,0.893h2.513
		C62.16,67.096,62.111,66.796,62.068,66.499z"/>
	<path fill="#D64C12" d="M60.669,76.095c0,0-4.272-21.64-28.892-40.623C7.157,16.489,3.889,24.794,3.889,24.794
		s24.041,113.321,67.212,89.796L60.669,76.095z"/>
	<path fill="#EB734D" d="M60.669,101.107c0,0-9.451-3.28-16.901-23.486c-7.453-20.202-13.51-40.147-25.964-44.524
		C-4.15,25.388,46.904,144.662,60.669,101.107z"/>
	<path fill="#D64C12" d="M138.181,76.095c0,0,4.271-21.64,28.892-40.623c24.619-18.983,27.893-10.678,27.893-10.678
		s-24.042,113.321-67.212,89.796L138.181,76.095z"/>
	<path fill="#EB734D" d="M138.181,101.107c0,0,9.454-3.28,16.904-23.486c7.451-20.202,13.509-40.147,25.961-44.524
		C202.998,25.388,151.948,144.662,138.181,101.107z"/>
	<g>
		<path fill="#AD421D" d="M92.537,153.037l-3.294-3.171v-8.743c0-1.174-0.917-2.128-2.053-2.128c-1.13,0-2.05,0.951-2.05,2.128
			v8.419c-0.19,0.113-0.371,0.26-0.52,0.446l-2.94,3.641c-0.679,0.842-0.57,2.092,0.24,2.796c0.81,0.707,2.015,0.594,2.694-0.244
			l0.852-1.057v0.889c0,1.097,0.857,1.987,1.914,1.987c1.06,0,1.917-0.889,1.917-1.987v-0.678l0.636,0.614
			c0.777,0.746,1.988,0.701,2.704-0.104C93.359,155.039,93.315,153.783,92.537,153.037z"/>
		<path fill="#AD421D" d="M117.003,153.037l-3.295-3.171v-8.743c0-1.174-0.916-2.128-2.052-2.128c-1.129,0-2.05,0.951-2.05,2.128
			v8.419c-0.193,0.113-0.368,0.26-0.52,0.446l-2.941,3.641c-0.677,0.842-0.572,2.092,0.239,2.796
			c0.81,0.707,2.015,0.594,2.695-0.244l0.852-1.057v0.889c0,1.097,0.856,1.987,1.916,1.987c1.058,0,1.916-0.889,1.916-1.987v-0.678
			l0.636,0.614c0.773,0.746,1.988,0.701,2.706-0.104C117.825,155.039,117.777,153.783,117.003,153.037z"/>
	</g>
	<path fill="#D64C12" d="M146.506,24.47c-2.588-1.06-13.582,11.345-13.582,11.345c-13.114-4.908-24.347-6.45-33.5-6.326
		c-9.153-0.125-20.383,1.418-33.5,6.326c0,0-10.994-12.405-13.581-11.345c-2.588,1.059-15.738,73.745,8.839,103.714
		c10.042,12.246,23.711,16.114,38.241,15.996c14.137,0.118,28.201-3.749,38.243-15.996C162.243,98.215,149.094,25.529,146.506,24.47
		z"/>
	<g>
		<path fill="#E49F8B" d="M123.27,40.907c-11.577,0-21.271,8.322-23.846,19.514c-2.57-11.192-12.267-19.514-23.841-19.514
			c-13.545,0-24.521,11.388-24.521,25.439c0,14.048-0.264,61.647,23.852,73.079c14.272,6.765,36.549,4.286,48.891-1.167
			c23.644-10.446,23.981-57.864,23.981-71.912C147.787,52.295,136.811,40.907,123.27,40.907z"/>
		<g>
			<ellipse fill="#FFFFFF" cx="74.342" cy="65.731" rx="17.891" ry="18.562"/>
		</g>
		<g>
			<ellipse fill="#FFFFFF" cx="123.591" cy="65.732" rx="17.891" ry="18.563"/>
		</g>
		<ellipse fill="#383838" cx="80.784" cy="67.757" rx="9.993" ry="10.369"/>
		<ellipse fill="#383838" cx="117.615" cy="67.756" rx="9.992" ry="10.369"/>
	</g>
	<g>
		<polygon fill="#AD421D" points="93,73.731 99.424,82.938 99.424,67.41 		"/>
		<polygon fill="#D66F4B" points="99.424,67.41 99.424,82.938 105.851,73.731 		"/>
	</g>
	<g>
		<g>
			<g>
				<path id="SVGID_429_" fill="#E6B5A7" d="M131.081,134.875c0.718-2.725,1.105-5.583,1.105-8.535
					c0-18.279-14.669-33.102-32.763-33.102c-18.091,0-32.761,14.822-32.761,33.102c0,2.967,0.392,5.839,1.118,8.575
					c9.076,7.159,20.084,9.591,31.643,9.495C110.688,144.506,121.903,142.064,131.081,134.875z"/>
			</g>
			<g>
				<defs>
					<path id="SVGID_1_" d="M131.081,134.875c0.718-2.725,1.105-5.583,1.105-8.535c0-18.279-14.669-33.102-32.763-33.102
						c-18.091,0-32.761,14.822-32.761,33.102c0,2.967,0.392,5.839,1.118,8.575c9.076,7.159,20.084,9.591,31.643,9.495
						C110.688,144.506,121.903,142.064,131.081,134.875z"/>
				</defs>
				<clipPath id="SVGID_2_">
					<use xlink:href="#SVGID_1_"  overflow="visible"/>
				</clipPath>
				<ellipse clip-path="url(#SVGID_2_)" fill="#D68063" cx="72.725" cy="96.347" rx="3.984" ry="4.134"/>
			</g>
			<g>
				<defs>
					<path id="SVGID_3_" d="M131.081,134.875c0.718-2.725,1.105-5.583,1.105-8.535c0-18.279-14.669-33.102-32.763-33.102
						c-18.091,0-32.761,14.822-32.761,33.102c0,2.967,0.392,5.839,1.118,8.575c9.076,7.159,20.084,9.591,31.643,9.495
						C110.688,144.506,121.903,142.064,131.081,134.875z"/>
				</defs>
				<clipPath id="SVGID_4_">
					<use xlink:href="#SVGID_3_"  overflow="visible"/>
				</clipPath>
				<ellipse clip-path="url(#SVGID_4_)" fill="#D68063" cx="83.064" cy="94.109" rx="1.828" ry="1.896"/>
			</g>
			<g>
				<defs>
					<path id="SVGID_5_" d="M131.081,134.875c0.718-2.725,1.105-5.583,1.105-8.535c0-18.279-14.669-33.102-32.763-33.102
						c-18.091,0-32.761,14.822-32.761,33.102c0,2.967,0.392,5.839,1.118,8.575c9.076,7.159,20.084,9.591,31.643,9.495
						C110.688,144.506,121.903,142.064,131.081,134.875z"/>
				</defs>
				<clipPath id="SVGID_6_">
					<use xlink:href="#SVGID_5_"  overflow="visible"/>
				</clipPath>
				<path clip-path="url(#SVGID_6_)" fill="#D68063" d="M87.958,102.296c0,1.927-1.503,3.49-3.363,3.49
					c-1.854,0-3.358-1.562-3.358-3.49c0-1.925,1.503-3.487,3.358-3.487C86.455,98.809,87.958,100.371,87.958,102.296z"/>
			</g>
			<g>
				<defs>
					<path id="SVGID_7_" d="M131.081,134.875c0.718-2.725,1.105-5.583,1.105-8.535c0-18.279-14.669-33.102-32.763-33.102
						c-18.091,0-32.761,14.822-32.761,33.102c0,2.967,0.392,5.839,1.118,8.575c9.076,7.159,20.084,9.591,31.643,9.495
						C110.688,144.506,121.903,142.064,131.081,134.875z"/>
				</defs>
				<clipPath id="SVGID_8_">
					<use xlink:href="#SVGID_7_"  overflow="visible"/>
				</clipPath>
				<path clip-path="url(#SVGID_8_)" fill="#D68063" d="M76.022,108.881c0,0.942-0.741,1.709-1.65,1.709
					c-0.911,0-1.649-0.767-1.649-1.709c0-0.944,0.738-1.712,1.649-1.712C75.281,107.169,76.022,107.937,76.022,108.881z"/>
			</g>
			<g>
				<defs>
					<path id="SVGID_9_" d="M131.081,134.875c0.718-2.725,1.105-5.583,1.105-8.535c0-18.279-14.669-33.102-32.763-33.102
						c-18.091,0-32.761,14.822-32.761,33.102c0,2.967,0.392,5.839,1.118,8.575c9.076,7.159,20.084,9.591,31.643,9.495
						C110.688,144.506,121.903,142.064,131.081,134.875z"/>
				</defs>
				<clipPath id="SVGID_10_">
					<use xlink:href="#SVGID_9_"  overflow="visible"/>
				</clipPath>
				<ellipse clip-path="url(#SVGID_10_)" fill="#D68063" cx="70.02" cy="107.116" rx="1.282" ry="1.33"/>
			</g>
			<g>
				<defs>
					<path id="SVGID_11_" d="M131.081,134.875c0.718-2.725,1.105-5.583,1.105-8.535c0-18.279-14.669-33.102-32.763-33.102
						c-18.091,0-32.761,14.822-32.761,33.102c0,2.967,0.392,5.839,1.118,8.575c9.076,7.159,20.084,9.591,31.643,9.495
						C110.688,144.506,121.903,142.064,131.081,134.875z"/>
				</defs>
				<clipPath id="SVGID_12_">
					<use xlink:href="#SVGID_11_"  overflow="visible"/>
				</clipPath>
				<ellipse clip-path="url(#SVGID_12_)" fill="#D68063" cx="95.834" cy="96.023" rx="2.685" ry="2.785"/>
			</g>
			<g>
				<defs>
					<path id="SVGID_13_" d="M131.081,134.875c0.718-2.725,1.105-5.583,1.105-8.535c0-18.279-14.669-33.102-32.763-33.102
						c-18.091,0-32.761,14.822-32.761,33.102c0,2.967,0.392,5.839,1.118,8.575c9.076,7.159,20.084,9.591,31.643,9.495
						C110.688,144.506,121.903,142.064,131.081,134.875z"/>
				</defs>
				<clipPath id="SVGID_14_">
					<use xlink:href="#SVGID_13_"  overflow="visible"/>
				</clipPath>
				<ellipse clip-path="url(#SVGID_14_)" fill="#D68063" cx="97.38" cy="111.731" rx="2.747" ry="2.851"/>
			</g>
			<g>
				<defs>
					<path id="SVGID_15_" d="M131.081,134.875c0.718-2.725,1.105-5.583,1.105-8.535c0-18.279-14.669-33.102-32.763-33.102
						c-18.091,0-32.761,14.822-32.761,33.102c0,2.967,0.392,5.839,1.118,8.575c9.076,7.159,20.084,9.591,31.643,9.495
						C110.688,144.506,121.903,142.064,131.081,134.875z"/>
				</defs>
				<clipPath id="SVGID_16_">
					<use xlink:href="#SVGID_15_"  overflow="visible"/>
				</clipPath>
				<ellipse clip-path="url(#SVGID_16_)" fill="#D68063" cx="88.313" cy="123.494" rx="3.72" ry="3.86"/>
			</g>
			<g>
				<defs>
					<path id="SVGID_17_" d="M131.081,134.875c0.718-2.725,1.105-5.583,1.105-8.535c0-18.279-14.669-33.102-32.763-33.102
						c-18.091,0-32.761,14.822-32.761,33.102c0,2.967,0.392,5.839,1.118,8.575c9.076,7.159,20.084,9.591,31.643,9.495
						C110.688,144.506,121.903,142.064,131.081,134.875z"/>
				</defs>
				<clipPath id="SVGID_18_">
					<use xlink:href="#SVGID_17_"  overflow="visible"/>
				</clipPath>
				<path clip-path="url(#SVGID_18_)" fill="#D68063" d="M84.595,113.475c0,0.965-0.751,1.744-1.68,1.744
					c-0.928,0-1.678-0.779-1.678-1.744c0-0.961,0.75-1.744,1.678-1.744C83.844,111.73,84.595,112.512,84.595,113.475z"/>
			</g>
			<g>
				<defs>
					<path id="SVGID_19_" d="M131.081,134.875c0.718-2.725,1.105-5.583,1.105-8.535c0-18.279-14.669-33.102-32.763-33.102
						c-18.091,0-32.761,14.822-32.761,33.102c0,2.967,0.392,5.839,1.118,8.575c9.076,7.159,20.084,9.591,31.643,9.495
						C110.688,144.506,121.903,142.064,131.081,134.875z"/>
				</defs>
				<clipPath id="SVGID_20_">
					<use xlink:href="#SVGID_19_"  overflow="visible"/>
				</clipPath>
				<path clip-path="url(#SVGID_20_)" fill="#D68063" d="M84.992,121.099c0,2.575-2.007,4.654-4.484,4.654
					c-2.479,0-4.486-2.081-4.486-4.654c0-2.57,2.006-4.652,4.486-4.652C82.985,116.444,84.992,118.526,84.992,121.099z"/>
			</g>
			<g>
				<defs>
					<path id="SVGID_21_" d="M131.081,134.875c0.718-2.725,1.105-5.583,1.105-8.535c0-18.279-14.669-33.102-32.763-33.102
						c-18.091,0-32.761,14.822-32.761,33.102c0,2.967,0.392,5.839,1.118,8.575c9.076,7.159,20.084,9.591,31.643,9.495
						C110.688,144.506,121.903,142.064,131.081,134.875z"/>
				</defs>
				<clipPath id="SVGID_22_">
					<use xlink:href="#SVGID_21_"  overflow="visible"/>
				</clipPath>
				<ellipse clip-path="url(#SVGID_22_)" fill="#D68063" cx="67.643" cy="121.565" rx="1.859" ry="1.928"/>
			</g>
			<g>
				<defs>
					<path id="SVGID_23_" d="M131.081,134.875c0.718-2.725,1.105-5.583,1.105-8.535c0-18.279-14.669-33.102-32.763-33.102
						c-18.091,0-32.761,14.822-32.761,33.102c0,2.967,0.392,5.839,1.118,8.575c9.076,7.159,20.084,9.591,31.643,9.495
						C110.688,144.506,121.903,142.064,131.081,134.875z"/>
				</defs>
				<clipPath id="SVGID_24_">
					<use xlink:href="#SVGID_23_"  overflow="visible"/>
				</clipPath>
				<ellipse clip-path="url(#SVGID_24_)" fill="#D68063" cx="72.838" cy="134.263" rx="1.535" ry="1.592"/>
			</g>
			<g>
				<defs>
					<path id="SVGID_25_" d="M131.081,134.875c0.718-2.725,1.105-5.583,1.105-8.535c0-18.279-14.669-33.102-32.763-33.102
						c-18.091,0-32.761,14.822-32.761,33.102c0,2.967,0.392,5.839,1.118,8.575c9.076,7.159,20.084,9.591,31.643,9.495
						C110.688,144.506,121.903,142.064,131.081,134.875z"/>
				</defs>
				<clipPath id="SVGID_26_">
					<use xlink:href="#SVGID_25_"  overflow="visible"/>
				</clipPath>
				<ellipse clip-path="url(#SVGID_26_)" fill="#D68063" cx="83.953" cy="133.747" rx="1.039" ry="1.078"/>
			</g>
			<g>
				<defs>
					<path id="SVGID_27_" d="M131.081,134.875c0.718-2.725,1.105-5.583,1.105-8.535c0-18.279-14.669-33.102-32.763-33.102
						c-18.091,0-32.761,14.822-32.761,33.102c0,2.967,0.392,5.839,1.118,8.575c9.076,7.159,20.084,9.591,31.643,9.495
						C110.688,144.506,121.903,142.064,131.081,134.875z"/>
				</defs>
				<clipPath id="SVGID_28_">
					<use xlink:href="#SVGID_27_"  overflow="visible"/>
				</clipPath>
				<ellipse clip-path="url(#SVGID_28_)" fill="#D68063" cx="99.838" cy="120.194" rx="1.319" ry="1.369"/>
			</g>
			<g>
				<defs>
					<path id="SVGID_29_" d="M131.081,134.875c0.718-2.725,1.105-5.583,1.105-8.535c0-18.279-14.669-33.102-32.763-33.102
						c-18.091,0-32.761,14.822-32.761,33.102c0,2.967,0.392,5.839,1.118,8.575c9.076,7.159,20.084,9.591,31.643,9.495
						C110.688,144.506,121.903,142.064,131.081,134.875z"/>
				</defs>
				<clipPath id="SVGID_30_">
					<use xlink:href="#SVGID_29_"  overflow="visible"/>
				</clipPath>
				<ellipse clip-path="url(#SVGID_30_)" fill="#D68063" cx="113.101" cy="106.061" rx="2.298" ry="2.385"/>
			</g>
			<g>
				<defs>
					<path id="SVGID_31_" d="M131.081,134.875c0.718-2.725,1.105-5.583,1.105-8.535c0-18.279-14.669-33.102-32.763-33.102
						c-18.091,0-32.761,14.822-32.761,33.102c0,2.967,0.392,5.839,1.118,8.575c9.076,7.159,20.084,9.591,31.643,9.495
						C110.688,144.506,121.903,142.064,131.081,134.875z"/>
				</defs>
				<clipPath id="SVGID_32_">
					<use xlink:href="#SVGID_31_"  overflow="visible"/>
				</clipPath>
				<path clip-path="url(#SVGID_32_)" fill="#D68063" d="M106.938,101.809c0,1.655-1.294,3-2.89,3c-1.599,0-2.892-1.345-2.892-3
					c0-1.657,1.293-3,2.892-3C105.645,98.809,106.938,100.151,106.938,101.809z"/>
			</g>
			<g>
				<defs>
					<path id="SVGID_33_" d="M131.081,134.875c0.718-2.725,1.105-5.583,1.105-8.535c0-18.279-14.669-33.102-32.763-33.102
						c-18.091,0-32.761,14.822-32.761,33.102c0,2.967,0.392,5.839,1.118,8.575c9.076,7.159,20.084,9.591,31.643,9.495
						C110.688,144.506,121.903,142.064,131.081,134.875z"/>
				</defs>
				<clipPath id="SVGID_34_">
					<use xlink:href="#SVGID_33_"  overflow="visible"/>
				</clipPath>
				<ellipse clip-path="url(#SVGID_34_)" fill="#D68063" cx="111.95" cy="98.163" rx="3.514" ry="3.646"/>
			</g>
			<g>
				<defs>
					<path id="SVGID_35_" d="M131.081,134.875c0.718-2.725,1.105-5.583,1.105-8.535c0-18.279-14.669-33.102-32.763-33.102
						c-18.091,0-32.761,14.822-32.761,33.102c0,2.967,0.392,5.839,1.118,8.575c9.076,7.159,20.084,9.591,31.643,9.495
						C110.688,144.506,121.903,142.064,131.081,134.875z"/>
				</defs>
				<clipPath id="SVGID_36_">
					<use xlink:href="#SVGID_35_"  overflow="visible"/>
				</clipPath>
				<path clip-path="url(#SVGID_36_)" fill="#D68063" d="M125.143,98.135c0,1.177-0.92,2.128-2.049,2.128
					c-1.137,0-2.054-0.951-2.054-2.128c0-1.174,0.917-2.128,2.054-2.128C124.223,96.006,125.143,96.961,125.143,98.135z"/>
			</g>
			<g>
				<defs>
					<path id="SVGID_37_" d="M131.081,134.875c0.718-2.725,1.105-5.583,1.105-8.535c0-18.279-14.669-33.102-32.763-33.102
						c-18.091,0-32.761,14.822-32.761,33.102c0,2.967,0.392,5.839,1.118,8.575c9.076,7.159,20.084,9.591,31.643,9.495
						C110.688,144.506,121.903,142.064,131.081,134.875z"/>
				</defs>
				<clipPath id="SVGID_38_">
					<use xlink:href="#SVGID_37_"  overflow="visible"/>
				</clipPath>
				<ellipse clip-path="url(#SVGID_38_)" fill="#D68063" cx="124.121" cy="107.886" rx="5.386" ry="5.59"/>
			</g>
			<g>
				<defs>
					<path id="SVGID_39_" d="M131.081,134.875c0.718-2.725,1.105-5.583,1.105-8.535c0-18.279-14.669-33.102-32.763-33.102
						c-18.091,0-32.761,14.822-32.761,33.102c0,2.967,0.392,5.839,1.118,8.575c9.076,7.159,20.084,9.591,31.643,9.495
						C110.688,144.506,121.903,142.064,131.081,134.875z"/>
				</defs>
				<clipPath id="SVGID_40_">
					<use xlink:href="#SVGID_39_"  overflow="visible"/>
				</clipPath>
				<path clip-path="url(#SVGID_40_)" fill="#D68063" d="M120.821,122.761c0,0.919-0.721,1.663-1.602,1.663
					c-0.886,0-1.604-0.744-1.604-1.663c0-0.916,0.719-1.662,1.604-1.662C120.101,121.099,120.821,121.845,120.821,122.761z"/>
			</g>
			<g>
				<defs>
					<path id="SVGID_41_" d="M131.081,134.875c0.718-2.725,1.105-5.583,1.105-8.535c0-18.279-14.669-33.102-32.763-33.102
						c-18.091,0-32.761,14.822-32.761,33.102c0,2.967,0.392,5.839,1.118,8.575c9.076,7.159,20.084,9.591,31.643,9.495
						C110.688,144.506,121.903,142.064,131.081,134.875z"/>
				</defs>
				<clipPath id="SVGID_42_">
					<use xlink:href="#SVGID_41_"  overflow="visible"/>
				</clipPath>
				<ellipse clip-path="url(#SVGID_42_)" fill="#D68063" cx="110.679" cy="118.771" rx="2.242" ry="2.327"/>
			</g>
			<g>
				<defs>
					<path id="SVGID_43_" d="M131.081,134.875c0.718-2.725,1.105-5.583,1.105-8.535c0-18.279-14.669-33.102-32.763-33.102
						c-18.091,0-32.761,14.822-32.761,33.102c0,2.967,0.392,5.839,1.118,8.575c9.076,7.159,20.084,9.591,31.643,9.495
						C110.688,144.506,121.903,142.064,131.081,134.875z"/>
				</defs>
				<clipPath id="SVGID_44_">
					<use xlink:href="#SVGID_43_"  overflow="visible"/>
				</clipPath>
				<ellipse clip-path="url(#SVGID_44_)" fill="#D68063" cx="108.014" cy="131.347" rx="2.314" ry="2.401"/>
			</g>
			<g>
				<defs>
					<path id="SVGID_45_" d="M131.081,134.875c0.718-2.725,1.105-5.583,1.105-8.535c0-18.279-14.669-33.102-32.763-33.102
						c-18.091,0-32.761,14.822-32.761,33.102c0,2.967,0.392,5.839,1.118,8.575c9.076,7.159,20.084,9.591,31.643,9.495
						C110.688,144.506,121.903,142.064,131.081,134.875z"/>
				</defs>
				<clipPath id="SVGID_46_">
					<use xlink:href="#SVGID_45_"  overflow="visible"/>
				</clipPath>
				<ellipse clip-path="url(#SVGID_46_)" fill="#D68063" cx="102.487" cy="140.259" rx="6.274" ry="6.509"/>
			</g>
			<g>
				<defs>
					<path id="SVGID_47_" d="M131.081,134.875c0.718-2.725,1.105-5.583,1.105-8.535c0-18.279-14.669-33.102-32.763-33.102
						c-18.091,0-32.761,14.822-32.761,33.102c0,2.967,0.392,5.839,1.118,8.575c9.076,7.159,20.084,9.591,31.643,9.495
						C110.688,144.506,121.903,142.064,131.081,134.875z"/>
				</defs>
				<clipPath id="SVGID_48_">
					<use xlink:href="#SVGID_47_"  overflow="visible"/>
				</clipPath>
				<path clip-path="url(#SVGID_48_)" fill="#D68063" d="M98.919,128.147c0,0.44-0.344,0.8-0.771,0.8
					c-0.423,0-0.769-0.359-0.769-0.8c0-0.439,0.345-0.798,0.769-0.798C98.576,127.35,98.919,127.708,98.919,128.147z"/>
			</g>
			<g>
				<defs>
					<path id="SVGID_49_" d="M131.081,134.875c0.718-2.725,1.105-5.583,1.105-8.535c0-18.279-14.669-33.102-32.763-33.102
						c-18.091,0-32.761,14.822-32.761,33.102c0,2.967,0.392,5.839,1.118,8.575c9.076,7.159,20.084,9.591,31.643,9.495
						C110.688,144.506,121.903,142.064,131.081,134.875z"/>
				</defs>
				<clipPath id="SVGID_50_">
					<use xlink:href="#SVGID_49_"  overflow="visible"/>
				</clipPath>
				<path clip-path="url(#SVGID_50_)" fill="#D68063" d="M94.633,134.022c0,0.742-0.582,1.349-1.301,1.349
					c-0.72,0-1.3-0.606-1.3-1.349c0-0.748,0.58-1.352,1.3-1.352C94.051,132.671,94.633,133.274,94.633,134.022z"/>
			</g>
			<g>
				<defs>
					<path id="SVGID_51_" d="M131.081,134.875c0.718-2.725,1.105-5.583,1.105-8.535c0-18.279-14.669-33.102-32.763-33.102
						c-18.091,0-32.761,14.822-32.761,33.102c0,2.967,0.392,5.839,1.118,8.575c9.076,7.159,20.084,9.591,31.643,9.495
						C110.688,144.506,121.903,142.064,131.081,134.875z"/>
				</defs>
				<clipPath id="SVGID_52_">
					<use xlink:href="#SVGID_51_"  overflow="visible"/>
				</clipPath>
				<path clip-path="url(#SVGID_52_)" fill="#D68063" d="M117.615,141.432c0,1.344-1.05,2.437-2.347,2.437
					c-1.293,0-2.347-1.093-2.347-2.437c0-1.345,1.054-2.436,2.347-2.436C116.565,138.996,117.615,140.086,117.615,141.432z"/>
			</g>
			<g>
				<defs>
					<path id="SVGID_53_" d="M131.081,134.875c0.718-2.725,1.105-5.583,1.105-8.535c0-18.279-14.669-33.102-32.763-33.102
						c-18.091,0-32.761,14.822-32.761,33.102c0,2.967,0.392,5.839,1.118,8.575c9.076,7.159,20.084,9.591,31.643,9.495
						C110.688,144.506,121.903,142.064,131.081,134.875z"/>
				</defs>
				<clipPath id="SVGID_54_">
					<use xlink:href="#SVGID_53_"  overflow="visible"/>
				</clipPath>
				<path clip-path="url(#SVGID_54_)" fill="#D68063" d="M123.094,134.68c0,1.109-0.869,2.007-1.937,2.007
					c-1.073,0-1.938-0.897-1.938-2.007c0-1.111,0.864-2.009,1.938-2.009C122.225,132.671,123.094,133.568,123.094,134.68z"/>
			</g>
			<g>
				<defs>
					<path id="SVGID_55_" d="M131.081,134.875c0.718-2.725,1.105-5.583,1.105-8.535c0-18.279-14.669-33.102-32.763-33.102
						c-18.091,0-32.761,14.822-32.761,33.102c0,2.967,0.392,5.839,1.118,8.575c9.076,7.159,20.084,9.591,31.643,9.495
						C110.688,144.506,121.903,142.064,131.081,134.875z"/>
				</defs>
				<clipPath id="SVGID_56_">
					<use xlink:href="#SVGID_55_"  overflow="visible"/>
				</clipPath>
				<path clip-path="url(#SVGID_56_)" fill="#D68063" d="M129.507,128.018c0,1.249-0.979,2.263-2.181,2.263
					c-1.206,0-2.184-1.014-2.184-2.263c0-1.25,0.978-2.266,2.184-2.266C128.527,125.752,129.507,126.768,129.507,128.018z"/>
			</g>
			<g>
				<defs>
					<path id="SVGID_57_" d="M131.081,134.875c0.718-2.725,1.105-5.583,1.105-8.535c0-18.279-14.669-33.102-32.763-33.102
						c-18.091,0-32.761,14.822-32.761,33.102c0,2.967,0.392,5.839,1.118,8.575c9.076,7.159,20.084,9.591,31.643,9.495
						C110.688,144.506,121.903,142.064,131.081,134.875z"/>
				</defs>
				<clipPath id="SVGID_58_">
					<use xlink:href="#SVGID_57_"  overflow="visible"/>
				</clipPath>
				<path clip-path="url(#SVGID_58_)" fill="#D68063" d="M132.187,121.678c0,1.123-0.881,2.038-1.966,2.038
					c-1.089,0-1.969-0.915-1.969-2.038c0-1.129,0.88-2.044,1.969-2.044C131.306,119.634,132.187,120.549,132.187,121.678z"/>
			</g>
			<g>
				<defs>
					<path id="SVGID_59_" d="M131.081,134.875c0.718-2.725,1.105-5.583,1.105-8.535c0-18.279-14.669-33.102-32.763-33.102
						c-18.091,0-32.761,14.822-32.761,33.102c0,2.967,0.392,5.839,1.118,8.575c9.076,7.159,20.084,9.591,31.643,9.495
						C110.688,144.506,121.903,142.064,131.081,134.875z"/>
				</defs>
				<clipPath id="SVGID_60_">
					<use xlink:href="#SVGID_59_"  overflow="visible"/>
				</clipPath>
				<ellipse clip-path="url(#SVGID_60_)" fill="#D68063" cx="107.088" cy="112.034" rx="1.39" ry="1.441"/>
			</g>
			<g>
				<defs>
					<path id="SVGID_61_" d="M131.081,134.875c0.718-2.725,1.105-5.583,1.105-8.535c0-18.279-14.669-33.102-32.763-33.102
						c-18.091,0-32.761,14.822-32.761,33.102c0,2.967,0.392,5.839,1.118,8.575c9.076,7.159,20.084,9.591,31.643,9.495
						C110.688,144.506,121.903,142.064,131.081,134.875z"/>
				</defs>
				<clipPath id="SVGID_62_">
					<use xlink:href="#SVGID_61_"  overflow="visible"/>
				</clipPath>
				<ellipse clip-path="url(#SVGID_62_)" fill="#D68063" cx="130.849" cy="99.525" rx="1.338" ry="1.391"/>
			</g>
			<g>
				<defs>
					<path id="SVGID_63_" d="M131.081,134.875c0.718-2.725,1.105-5.583,1.105-8.535c0-18.279-14.669-33.102-32.763-33.102
						c-18.091,0-32.761,14.822-32.761,33.102c0,2.967,0.392,5.839,1.118,8.575c9.076,7.159,20.084,9.591,31.643,9.495
						C110.688,144.506,121.903,142.064,131.081,134.875z"/>
				</defs>
				<clipPath id="SVGID_64_">
					<use xlink:href="#SVGID_63_"  overflow="visible"/>
				</clipPath>
				<ellipse clip-path="url(#SVGID_64_)" fill="#D68063" cx="81.075" cy="136.837" rx="2.082" ry="2.159"/>
			</g>
			<g>
				<defs>
					<path id="SVGID_65_" d="M131.081,134.875c0.718-2.725,1.105-5.583,1.105-8.535c0-18.279-14.669-33.102-32.763-33.102
						c-18.091,0-32.761,14.822-32.761,33.102c0,2.967,0.392,5.839,1.118,8.575c9.076,7.159,20.084,9.591,31.643,9.495
						C110.688,144.506,121.903,142.064,131.081,134.875z"/>
				</defs>
				<clipPath id="SVGID_66_">
					<use xlink:href="#SVGID_65_"  overflow="visible"/>
				</clipPath>
				<path clip-path="url(#SVGID_66_)" fill="#D68063" d="M72.723,129.418c0,0.774-0.605,1.404-1.351,1.404
					c-0.748,0-1.351-0.63-1.351-1.404s0.603-1.4,1.351-1.4C72.117,128.018,72.723,128.645,72.723,129.418z"/>
			</g>
			<g>
				<defs>
					<path id="SVGID_67_" d="M131.081,134.875c0.718-2.725,1.105-5.583,1.105-8.535c0-18.279-14.669-33.102-32.763-33.102
						c-18.091,0-32.761,14.822-32.761,33.102c0,2.967,0.392,5.839,1.118,8.575c9.076,7.159,20.084,9.591,31.643,9.495
						C110.688,144.506,121.903,142.064,131.081,134.875z"/>
				</defs>
				<clipPath id="SVGID_68_">
					<use xlink:href="#SVGID_67_"  overflow="visible"/>
				</clipPath>
				<path clip-path="url(#SVGID_68_)" fill="#D68063" d="M92.971,105.298c0,0.269-0.208,0.486-0.471,0.486
					c-0.258,0-0.468-0.218-0.468-0.486c0-0.271,0.21-0.487,0.468-0.487C92.763,104.811,92.971,105.026,92.971,105.298z"/>
			</g>
			<g>
				<defs>
					<path id="SVGID_69_" d="M131.081,134.875c0.718-2.725,1.105-5.583,1.105-8.535c0-18.279-14.669-33.102-32.763-33.102
						c-18.091,0-32.761,14.822-32.761,33.102c0,2.967,0.392,5.839,1.118,8.575c9.076,7.159,20.084,9.591,31.643,9.495
						C110.688,144.506,121.903,142.064,131.081,134.875z"/>
				</defs>
				<clipPath id="SVGID_70_">
					<use xlink:href="#SVGID_69_"  overflow="visible"/>
				</clipPath>
				<path clip-path="url(#SVGID_70_)" fill="#D68063" d="M106.27,93.364c0,0.636-0.499,1.153-1.112,1.153
					c-0.614,0-1.108-0.519-1.108-1.153c0-0.634,0.494-1.152,1.108-1.152C105.771,92.213,106.27,92.73,106.27,93.364z"/>
			</g>
			<g>
				<defs>
					<path id="SVGID_71_" d="M131.081,134.875c0.718-2.725,1.105-5.583,1.105-8.535c0-18.279-14.669-33.102-32.763-33.102
						c-18.091,0-32.761,14.822-32.761,33.102c0,2.967,0.392,5.839,1.118,8.575c9.076,7.159,20.084,9.591,31.643,9.495
						C110.688,144.506,121.903,142.064,131.081,134.875z"/>
				</defs>
				<clipPath id="SVGID_72_">
					<use xlink:href="#SVGID_71_"  overflow="visible"/>
				</clipPath>
				<ellipse clip-path="url(#SVGID_72_)" fill="#D68063" cx="101.308" cy="89.737" rx="1.18" ry="1.225"/>
			</g>
			<g>
				<defs>
					<path id="SVGID_73_" d="M131.081,134.875c0.718-2.725,1.105-5.583,1.105-8.535c0-18.279-14.669-33.102-32.763-33.102
						c-18.091,0-32.761,14.822-32.761,33.102c0,2.967,0.392,5.839,1.118,8.575c9.076,7.159,20.084,9.591,31.643,9.495
						C110.688,144.506,121.903,142.064,131.081,134.875z"/>
				</defs>
				<clipPath id="SVGID_74_">
					<use xlink:href="#SVGID_73_"  overflow="visible"/>
				</clipPath>
				<ellipse clip-path="url(#SVGID_74_)" fill="#D68063" cx="118.774" cy="92.164" rx="1.157" ry="1.201"/>
			</g>
			<g>
				<defs>
					<path id="SVGID_75_" d="M131.081,134.875c0.718-2.725,1.105-5.583,1.105-8.535c0-18.279-14.669-33.102-32.763-33.102
						c-18.091,0-32.761,14.822-32.761,33.102c0,2.967,0.392,5.839,1.118,8.575c9.076,7.159,20.084,9.591,31.643,9.495
						C110.688,144.506,121.903,142.064,131.081,134.875z"/>
				</defs>
				<clipPath id="SVGID_76_">
					<use xlink:href="#SVGID_75_"  overflow="visible"/>
				</clipPath>
				<ellipse clip-path="url(#SVGID_76_)" fill="#D68063" cx="89.553" cy="92.247" rx="2.419" ry="2.511"/>
			</g>
			<g>
				<defs>
					<path id="SVGID_77_" d="M131.081,134.875c0.718-2.725,1.105-5.583,1.105-8.535c0-18.279-14.669-33.102-32.763-33.102
						c-18.091,0-32.761,14.822-32.761,33.102c0,2.967,0.392,5.839,1.118,8.575c9.076,7.159,20.084,9.591,31.643,9.495
						C110.688,144.506,121.903,142.064,131.081,134.875z"/>
				</defs>
				<clipPath id="SVGID_78_">
					<use xlink:href="#SVGID_77_"  overflow="visible"/>
				</clipPath>
				<ellipse clip-path="url(#SVGID_78_)" fill="#D68063" cx="91.374" cy="114.096" rx="0.599" ry="0.62"/>
			</g>
			<g>
				<defs>
					<path id="SVGID_79_" d="M131.081,134.875c0.718-2.725,1.105-5.583,1.105-8.535c0-18.279-14.669-33.102-32.763-33.102
						c-18.091,0-32.761,14.822-32.761,33.102c0,2.967,0.392,5.839,1.118,8.575c9.076,7.159,20.084,9.591,31.643,9.495
						C110.688,144.506,121.903,142.064,131.081,134.875z"/>
				</defs>
				<clipPath id="SVGID_80_">
					<use xlink:href="#SVGID_79_"  overflow="visible"/>
				</clipPath>
				<ellipse clip-path="url(#SVGID_80_)" fill="#D68063" cx="89.851" cy="118.04" rx="1.539" ry="1.597"/>
			</g>
			<g>
				<defs>
					<path id="SVGID_81_" d="M131.081,134.875c0.718-2.725,1.105-5.583,1.105-8.535c0-18.279-14.669-33.102-32.763-33.102
						c-18.091,0-32.761,14.822-32.761,33.102c0,2.967,0.392,5.839,1.118,8.575c9.076,7.159,20.084,9.591,31.643,9.495
						C110.688,144.506,121.903,142.064,131.081,134.875z"/>
				</defs>
				<clipPath id="SVGID_82_">
					<use xlink:href="#SVGID_81_"  overflow="visible"/>
				</clipPath>
				<ellipse clip-path="url(#SVGID_82_)" fill="#D68063" cx="108.709" cy="127.434" rx="1.619" ry="1.68"/>
			</g>
			<g>
				<defs>
					<path id="SVGID_83_" d="M131.081,134.875c0.718-2.725,1.105-5.583,1.105-8.535c0-18.279-14.669-33.102-32.763-33.102
						c-18.091,0-32.761,14.822-32.761,33.102c0,2.967,0.392,5.839,1.118,8.575c9.076,7.159,20.084,9.591,31.643,9.495
						C110.688,144.506,121.903,142.064,131.081,134.875z"/>
				</defs>
				<clipPath id="SVGID_84_">
					<use xlink:href="#SVGID_83_"  overflow="visible"/>
				</clipPath>
				<path clip-path="url(#SVGID_84_)" fill="#D68063" d="M115.359,128.148c1.245,0,2.256,1.048,2.256,2.344
					c0,1.292-1.011,2.342-2.256,2.342c-1.249,0-2.259-1.05-2.259-2.342C113.101,129.196,114.11,128.148,115.359,128.148z"/>
			</g>
			<g>
				<defs>
					<path id="SVGID_85_" d="M131.081,134.875c0.718-2.725,1.105-5.583,1.105-8.535c0-18.279-14.669-33.102-32.763-33.102
						c-18.091,0-32.761,14.822-32.761,33.102c0,2.967,0.392,5.839,1.118,8.575c9.076,7.159,20.084,9.591,31.643,9.495
						C110.688,144.506,121.903,142.064,131.081,134.875z"/>
				</defs>
				<clipPath id="SVGID_86_">
					<use xlink:href="#SVGID_85_"  overflow="visible"/>
				</clipPath>
				<path clip-path="url(#SVGID_86_)" fill="#D68063" d="M119.525,117.427c0,1.22-0.954,2.207-2.128,2.207s-2.13-0.987-2.13-2.207
					c0-1.221,0.954-2.208,2.13-2.208C118.571,115.219,119.525,116.206,119.525,117.427z"/>
			</g>
			<g>
				<defs>
					<path id="SVGID_87_" d="M131.081,134.875c0.718-2.725,1.105-5.583,1.105-8.535c0-18.279-14.669-33.102-32.763-33.102
						c-18.091,0-32.761,14.822-32.761,33.102c0,2.967,0.392,5.839,1.118,8.575c9.076,7.159,20.084,9.591,31.643,9.495
						C110.688,144.506,121.903,142.064,131.081,134.875z"/>
				</defs>
				<clipPath id="SVGID_88_">
					<use xlink:href="#SVGID_87_"  overflow="visible"/>
				</clipPath>
				<path clip-path="url(#SVGID_88_)" fill="#D68063" d="M131.201,121.674c0.545,0,0.985,0.459,0.985,1.022s-0.44,1.021-0.985,1.021
					c-0.541,0-0.982-0.458-0.982-1.021S130.66,121.674,131.201,121.674z"/>
			</g>
			<g>
				<defs>
					<path id="SVGID_89_" d="M131.081,134.875c0.718-2.725,1.105-5.583,1.105-8.535c0-18.279-14.669-33.102-32.763-33.102
						c-18.091,0-32.761,14.822-32.761,33.102c0,2.967,0.392,5.839,1.118,8.575c9.076,7.159,20.084,9.591,31.643,9.495
						C110.688,144.506,121.903,142.064,131.081,134.875z"/>
				</defs>
				<clipPath id="SVGID_90_">
					<use xlink:href="#SVGID_89_"  overflow="visible"/>
				</clipPath>
				<ellipse clip-path="url(#SVGID_90_)" fill="#D68063" cx="67.701" cy="101.994" rx="1.04" ry="1.079"/>
			</g>
			<g>
				<defs>
					<path id="SVGID_91_" d="M131.081,134.875c0.718-2.725,1.105-5.583,1.105-8.535c0-18.279-14.669-33.102-32.763-33.102
						c-18.091,0-32.761,14.822-32.761,33.102c0,2.967,0.392,5.839,1.118,8.575c9.076,7.159,20.084,9.591,31.643,9.495
						C110.688,144.506,121.903,142.064,131.081,134.875z"/>
				</defs>
				<clipPath id="SVGID_92_">
					<use xlink:href="#SVGID_91_"  overflow="visible"/>
				</clipPath>
				<ellipse clip-path="url(#SVGID_92_)" fill="#D68063" cx="77.232" cy="103.553" rx="1.211" ry="1.256"/>
			</g>
			<g>
				<defs>
					<path id="SVGID_93_" d="M131.081,134.875c0.718-2.725,1.105-5.583,1.105-8.535c0-18.279-14.669-33.102-32.763-33.102
						c-18.091,0-32.761,14.822-32.761,33.102c0,2.967,0.392,5.839,1.118,8.575c9.076,7.159,20.084,9.591,31.643,9.495
						C110.688,144.506,121.903,142.064,131.081,134.875z"/>
				</defs>
				<clipPath id="SVGID_94_">
					<use xlink:href="#SVGID_93_"  overflow="visible"/>
				</clipPath>
				<ellipse clip-path="url(#SVGID_94_)" fill="#D68063" cx="71.496" cy="119.569" rx="1.473" ry="1.529"/>
			</g>
			<g>
				<defs>
					<path id="SVGID_95_" d="M131.081,134.875c0.718-2.725,1.105-5.583,1.105-8.535c0-18.279-14.669-33.102-32.763-33.102
						c-18.091,0-32.761,14.822-32.761,33.102c0,2.967,0.392,5.839,1.118,8.575c9.076,7.159,20.084,9.591,31.643,9.495
						C110.688,144.506,121.903,142.064,131.081,134.875z"/>
				</defs>
				<clipPath id="SVGID_96_">
					<use xlink:href="#SVGID_95_"  overflow="visible"/>
				</clipPath>
				<ellipse clip-path="url(#SVGID_96_)" fill="#D68063" cx="78.87" cy="131.982" rx="1.638" ry="1.7"/>
			</g>
			<g>
				<defs>
					<path id="SVGID_97_" d="M131.081,134.875c0.718-2.725,1.105-5.583,1.105-8.535c0-18.279-14.669-33.102-32.763-33.102
						c-18.091,0-32.761,14.822-32.761,33.102c0,2.967,0.392,5.839,1.118,8.575c9.076,7.159,20.084,9.591,31.643,9.495
						C110.688,144.506,121.903,142.064,131.081,134.875z"/>
				</defs>
				<clipPath id="SVGID_98_">
					<use xlink:href="#SVGID_97_"  overflow="visible"/>
				</clipPath>
				<ellipse clip-path="url(#SVGID_98_)" fill="#D68063" cx="88.217" cy="141.321" rx="1.026" ry="1.065"/>
			</g>
		</g>
	</g>
	<g>
		<path fill="#A75627" d="M73.175,45.607c-0.353-0.381-0.704-0.762-1.06-1.145C72.115,44.463,72.45,44.902,73.175,45.607z"/>
		<path fill="#A75627" d="M113.913,10.495l0.325,4.043c0,0-3.266-3.397-6.693-5.014l1.143,3.72c0,0-6.367-10.353-11.755-13.103
			c0,0-3.917,6.149-5.221,11.81c0,0-0.817-2.429-0.817-4.206c0,0-2.286,2.911-2.452,5.499c0,0-3.755-4.851-3.755-8.896
			c0,0-14.78,12.442-20.872,25.018c1.824,5.106,4.543,11.031,8.301,15.097c0.354,0.382,0.708,0.763,1.059,1.146
			c2.445,2.383,9.369,7.819,23.104,9.69l-3.779-3.072c0,0,8.677,3.237,16.353,0.323c7.671-2.909,11.429-6.63,11.429-6.63
			s5.254-3.752,9.899-12.512c-0.313-1.116-0.673-2.18-1.083-3.179C122.729,14.699,113.913,10.495,113.913,10.495z"/>
		<path opacity="0.2" fill="#A75627" enable-background="new    " d="M130.104,33.164c-1.95,2.194-8.4,8.659-18.982,11.871l0,0
			c-17.9,4.132-28.148-15.212-28.148-15.212c1.186,12.329,5.169,15.008,5.484,15.199c-9.017-3.693-10.874-11.614-10.874-11.614
			l-1.223,4.099c-7.104-16.257,8.326-33.159,8.326-33.159S69.905,16.788,63.814,29.365c1.824,5.105,4.543,11.029,8.3,15.097
			c0.355,0.382,0.707,0.762,1.06,1.145c2.445,2.383,9.369,7.819,23.104,9.692l-3.78-3.074c0,0,8.679,3.236,16.354,0.323
			c7.672-2.909,11.429-6.63,11.429-6.63s5.255-3.753,9.898-12.513C130.156,33.325,130.127,33.245,130.104,33.164z"/>
	</g>
	<g>
		<path fill="#C8C1D6" d="M81.057,17.901c0,5.264,0,10.533-0.847,15.802c0-3.513,0.847-6.146,0.847-8.779
			c7.615,11.41,13.536,17.556,27.919,22.822"/>
	</g>
</g>
</svg>
