<?xml version="1.0" encoding="utf-8"?>
<!-- Generator: Adobe Illustrator 16.0.3, SVG Export Plug-In . SVG Version: 6.00 Build 0)  -->
<!DOCTYPE svg PUBLIC "-//W3C//DTD SVG 1.1//EN" "http://www.w3.org/Graphics/SVG/1.1/DTD/svg11.dtd">
<svg version="1.1" id="Capa_1" xmlns="http://www.w3.org/2000/svg" xmlns:xlink="http://www.w3.org/1999/xlink" x="0px" y="0px"
	 width="200px" height="300px" viewBox="0 0 200 300" enable-background="new 0 0 200 300" xml:space="preserve">
<g>
	<path fill="#348EA2" d="M59.428,143.338c0,0-4.423-20.038-29.922-37.612C4.005,88.149,0.62,95.84,0.62,95.84
		s24.899,104.921,69.612,83.141L59.428,143.338z"/>
	<path fill="#5AA8AD" d="M59.428,166.498c0,0-9.788-3.039-17.504-21.746c-7.719-18.705-13.993-37.173-26.893-41.225
		C-7.706,96.39,45.172,206.825,59.428,166.498z"/>
	<path fill="#348EA2" d="M139.711,143.338c0,0,4.423-20.038,29.923-37.612c25.499-17.577,28.887-9.886,28.887-9.886
		s-24.901,104.921-69.614,83.141L139.711,143.338z"/>
	<path fill="#5AA8AD" d="M139.711,166.498c0,0,9.789-3.039,17.506-21.746c7.716-18.705,13.993-37.173,26.89-41.225
		C206.842,96.39,153.968,206.825,139.711,166.498z"/>
	<path fill="#5AA8AD" d="M150.012,93.765c-2.768-1.094-14.535,11.705-14.535,11.705c-14.038-5.063-26.061-6.655-35.857-6.526
		c-9.797-0.129-21.819,1.463-35.857,6.526c0,0-11.767-12.799-14.535-11.705c-2.771,1.092-16.844,76.076,9.459,106.992
		c10.748,12.636,25.377,16.624,40.933,16.5c15.13,0.124,30.185-3.864,40.932-16.5C166.855,169.841,152.781,94.857,150.012,93.765z"
		/>
	<g>
		<path fill="#D3E5E7" d="M125.143,110.72c-12.392,0-22.768,8.586-25.523,20.13c-2.754-11.544-13.132-20.13-25.521-20.13
			c-14.493,0-26.243,11.749-26.243,26.244c0,14.494,11.75,26.244,26.243,26.244c12.39,0,22.768-8.587,25.521-20.13
			c2.756,11.543,13.132,20.13,25.523,20.13c14.493,0,26.241-11.75,26.241-26.244C151.384,122.469,139.636,110.72,125.143,110.72z"/>
		<g>
			<circle fill="#FFFFFF" cx="126.467" cy="136.33" r="19.149"/>
			<g>
				<circle fill="#25869D" cx="127.869" cy="137.821" r="13.707"/>
				<circle fill="#FFFFFF" cx="128.543" cy="132.177" r="3.461"/>
			</g>
		</g>
		<g>
			<circle fill="#FFFFFF" cx="72.772" cy="136.33" r="19.15"/>
			<g>
				<circle fill="#25869D" cx="72.587" cy="137.821" r="13.707"/>
				<circle fill="#FFFFFF" cx="70.696" cy="132.177" r="3.461"/>
			</g>
		</g>
	</g>
	<g>
		<polygon fill="#25869D" points="92.742,144.583 99.619,154.08 99.619,138.061 		"/>
		<polygon fill="#167E98" points="99.619,138.061 99.619,154.08 106.496,144.583 		"/>
	</g>
	<g>
		<g>
			<path fill="#D3E5E7" d="M133.502,207.659c0.769-2.81,1.184-5.76,1.184-8.805c0-18.859-15.701-34.147-35.066-34.147
				s-35.065,15.288-35.065,34.147c0,3.061,0.42,6.023,1.194,8.846c9.714,7.386,21.5,9.895,33.871,9.796
				C111.677,217.595,123.682,215.076,133.502,207.659z"/>
		</g>
		<g>
			<defs>
				<path id="SVGID_1_" d="M133.502,207.659c0.769-2.81,1.184-5.76,1.184-8.805c0-18.859-15.701-34.147-35.066-34.147
					s-35.065,15.288-35.065,34.147c0,3.061,0.42,6.023,1.194,8.846c9.714,7.386,21.5,9.895,33.871,9.796
					C111.677,217.595,123.682,215.076,133.502,207.659z"/>
			</defs>
			<clipPath id="SVGID_2_">
				<use xlink:href="#SVGID_1_"  overflow="visible"/>
			</clipPath>
			<g clip-path="url(#SVGID_2_)">
				<g>
					<polygon fill="#167E98" points="85.384,178.702 79.317,178.702 82.418,181.803 					"/>
					<polygon fill="#167E98" points="92.166,178.702 86.099,178.702 89.198,181.803 					"/>
					<polygon fill="#167E98" points="98.947,178.702 92.878,178.702 95.978,181.803 					"/>
					<polygon fill="#167E98" points="105.726,178.702 99.658,178.702 102.76,181.803 					"/>
					<polygon fill="#167E98" points="112.508,178.702 106.439,178.702 109.54,181.803 					"/>
					<polygon fill="#167E98" points="119.289,178.702 113.219,178.702 116.321,181.803 					"/>
					<polygon fill="#167E98" points="126.068,178.702 120.001,178.702 123.103,181.803 					"/>
					<polygon fill="#167E98" points="78.605,178.702 72.536,178.702 75.637,181.803 					"/>
				</g>
				<g>
					<polygon fill="#167E98" points="88.776,174.646 82.706,174.646 85.807,177.746 					"/>
					<polygon fill="#167E98" points="95.555,174.646 89.488,174.646 92.587,177.746 					"/>
					<polygon fill="#167E98" points="102.336,174.646 96.268,174.646 99.369,177.746 					"/>
					<polygon fill="#167E98" points="109.119,174.646 103.049,174.646 106.148,177.746 					"/>
					<polygon fill="#167E98" points="115.897,174.646 109.829,174.646 112.931,177.746 					"/>
					<polygon fill="#167E98" points="122.679,174.646 116.61,174.646 119.711,177.746 					"/>
					<polygon fill="#167E98" points="81.995,174.646 75.926,174.646 79.026,177.746 					"/>
					<polygon fill="#167E98" points="136.24,174.646 130.172,174.646 133.273,177.746 					"/>
				</g>
				<g>
					<polygon fill="#167E98" points="81.995,166.534 75.926,166.534 79.027,169.635 					"/>
					<polygon fill="#167E98" points="88.776,166.534 82.706,166.534 85.807,169.635 					"/>
					<polygon fill="#167E98" points="95.558,166.534 89.488,166.534 92.589,169.635 					"/>
					<polygon fill="#167E98" points="102.336,166.534 96.268,166.534 99.367,169.635 					"/>
					<polygon fill="#167E98" points="109.119,166.534 103.049,166.534 106.148,169.635 					"/>
					<polygon fill="#167E98" points="115.9,166.534 109.829,166.534 112.931,169.635 					"/>
					<polygon fill="#167E98" points="122.679,166.534 116.61,166.534 119.711,169.635 					"/>
					<polygon fill="#167E98" points="75.213,166.534 69.146,166.534 72.247,169.635 					"/>
					<polygon fill="#167E98" points="136.24,166.534 130.172,166.534 133.273,169.635 					"/>
					<polygon fill="#167E98" points="129.46,166.534 123.391,166.534 126.493,169.635 					"/>
				</g>
				<g>
					<polygon fill="#167E98" points="85.384,170.589 79.317,170.589 82.418,173.69 					"/>
					<polygon fill="#167E98" points="92.166,170.589 86.099,170.589 89.198,173.69 					"/>
					<polygon fill="#167E98" points="98.947,170.589 92.878,170.589 95.978,173.69 					"/>
					<polygon fill="#167E98" points="105.726,170.589 99.658,170.589 102.76,173.69 					"/>
					<polygon fill="#167E98" points="112.508,170.589 106.439,170.589 109.54,173.69 					"/>
					<polygon fill="#167E98" points="119.289,170.589 113.219,170.589 116.321,173.69 					"/>
					<polygon fill="#167E98" points="78.605,170.589 72.536,170.589 75.637,173.69 					"/>
					<polygon fill="#167E98" points="139.631,170.589 133.562,170.589 136.662,173.69 					"/>
					<polygon fill="#167E98" points="132.849,170.589 126.782,170.589 129.884,173.69 					"/>
				</g>
				<g>
					<polygon fill="#167E98" points="85.029,194.927 78.959,194.927 82.061,198.026 					"/>
					<polygon fill="#167E98" points="91.808,194.927 85.741,194.927 88.841,198.026 					"/>
					<polygon fill="#167E98" points="98.59,194.927 92.521,194.927 95.623,198.026 					"/>
					<polygon fill="#167E98" points="105.371,194.927 99.302,194.927 102.402,198.026 					"/>
					<polygon fill="#167E98" points="112.15,194.927 106.084,194.927 109.185,198.026 					"/>
					<polygon fill="#167E98" points="118.933,194.927 112.863,194.927 115.964,198.026 					"/>
					<polygon fill="#167E98" points="125.715,194.927 119.643,194.927 122.744,198.026 					"/>
					<polygon fill="#167E98" points="78.248,194.927 72.179,194.927 75.279,198.026 					"/>
					<polygon fill="#167E98" points="71.466,194.927 65.399,194.927 68.5,198.026 					"/>
					<polygon fill="#167E98" points="139.273,194.927 133.206,194.927 136.307,198.026 					"/>
					<polygon fill="#167E98" points="132.493,194.927 126.425,194.927 129.526,198.026 					"/>
				</g>
				<g>
					<polygon fill="#167E98" points="68.433,190.869 62.365,190.869 65.466,193.971 					"/>
					<polygon fill="#167E98" points="88.419,190.869 82.351,190.869 85.451,193.971 					"/>
					<polygon fill="#167E98" points="95.2,190.869 89.131,190.869 92.232,193.971 					"/>
					<polygon fill="#167E98" points="101.98,190.869 95.913,190.869 99.014,193.971 					"/>
					<polygon fill="#167E98" points="108.76,190.869 102.693,190.869 105.793,193.971 					"/>
					<polygon fill="#167E98" points="115.542,190.869 109.474,190.869 112.574,193.971 					"/>
					<polygon fill="#167E98" points="122.323,190.869 116.253,190.869 119.355,193.971 					"/>
					<polygon fill="#167E98" points="129.104,190.869 123.033,190.869 126.136,193.971 					"/>
					<polygon fill="#167E98" points="81.639,190.869 75.57,190.869 78.671,193.971 					"/>
					<polygon fill="#167E98" points="74.857,190.869 68.789,190.869 71.89,193.971 					"/>
					<polygon fill="#167E98" points="135.884,190.869 129.816,190.869 132.916,193.971 					"/>
				</g>
				<g>
					<polygon fill="#167E98" points="68.077,182.759 62.008,182.759 65.109,185.859 					"/>
					<polygon fill="#167E98" points="81.639,182.759 75.57,182.759 78.671,185.859 					"/>
					<polygon fill="#167E98" points="88.419,182.759 82.351,182.759 85.451,185.859 					"/>
					<polygon fill="#167E98" points="95.2,182.759 89.132,182.759 92.232,185.859 					"/>
					<polygon fill="#167E98" points="101.98,182.759 95.913,182.759 99.014,185.859 					"/>
					<polygon fill="#167E98" points="108.76,182.759 102.693,182.759 105.793,185.859 					"/>
					<polygon fill="#167E98" points="115.542,182.759 109.475,182.759 112.575,185.859 					"/>
					<polygon fill="#167E98" points="122.323,182.759 116.253,182.759 119.355,185.859 					"/>
					<polygon fill="#167E98" points="74.857,182.759 68.789,182.759 71.89,185.859 					"/>
					<polygon fill="#167E98" points="129.104,182.759 123.033,182.759 126.137,185.859 					"/>
				</g>
				<g>
					<polygon fill="#167E98" points="85.029,186.813 78.959,186.813 82.061,189.915 					"/>
					<polygon fill="#167E98" points="91.808,186.813 85.741,186.813 88.841,189.915 					"/>
					<polygon fill="#167E98" points="98.59,186.813 92.521,186.813 95.623,189.915 					"/>
					<polygon fill="#167E98" points="105.371,186.813 99.302,186.813 102.402,189.915 					"/>
					<polygon fill="#167E98" points="112.15,186.813 106.084,186.813 109.185,189.915 					"/>
					<polygon fill="#167E98" points="118.933,186.813 112.863,186.813 115.964,189.915 					"/>
					<polygon fill="#167E98" points="125.715,186.813 119.643,186.813 122.744,189.915 					"/>
					<polygon fill="#167E98" points="78.248,186.813 72.179,186.813 75.279,189.915 					"/>
					<polygon fill="#167E98" points="71.466,186.813 65.399,186.813 68.5,189.915 					"/>
					<polygon fill="#167E98" points="139.273,186.813 133.206,186.813 136.307,189.915 					"/>
					<polygon fill="#167E98" points="132.493,186.813 126.425,186.813 129.526,189.915 					"/>
				</g>
				<g>
					<polygon fill="#167E98" points="78.25,211.148 72.181,211.148 75.281,214.25 					"/>
					<polygon fill="#167E98" points="85.029,211.148 78.959,211.148 82.061,214.25 					"/>
					<polygon fill="#167E98" points="91.81,211.148 85.741,211.148 88.842,214.25 					"/>
					<polygon fill="#167E98" points="98.592,211.148 92.523,211.148 95.623,214.25 					"/>
					<polygon fill="#167E98" points="105.371,211.148 99.302,211.148 102.402,214.25 					"/>
					<polygon fill="#167E98" points="112.151,211.148 106.084,211.148 109.185,214.25 					"/>
					<polygon fill="#167E98" points="118.934,211.148 112.864,211.148 115.964,214.25 					"/>
					<polygon fill="#167E98" points="125.715,211.148 119.645,211.148 122.744,214.25 					"/>
				</g>
				<g>
					<polygon fill="#167E98" points="135.528,207.094 129.458,207.094 132.562,210.194 					"/>
					<polygon fill="#167E98" points="81.639,207.094 75.57,207.094 78.671,210.194 					"/>
					<polygon fill="#167E98" points="88.419,207.094 82.351,207.094 85.451,210.194 					"/>
					<polygon fill="#167E98" points="95.2,207.094 89.132,207.094 92.233,210.194 					"/>
					<polygon fill="#167E98" points="101.98,207.094 95.913,207.094 99.014,210.194 					"/>
					<polygon fill="#167E98" points="108.76,207.094 102.693,207.094 105.795,210.194 					"/>
					<polygon fill="#167E98" points="115.542,207.094 109.475,207.094 112.575,210.194 					"/>
					<polygon fill="#167E98" points="122.324,207.094 116.253,207.094 119.355,210.194 					"/>
					<polygon fill="#167E98" points="74.858,207.094 68.79,207.094 71.89,210.194 					"/>
					<polygon fill="#167E98" points="68.077,207.094 62.008,207.094 65.109,210.194 					"/>
					<polygon fill="#167E98" points="129.104,207.094 123.035,207.094 126.137,210.194 					"/>
				</g>
				<g>
					<polygon fill="#167E98" points="135.731,198.981 129.662,198.981 132.763,202.083 					"/>
					<polygon fill="#167E98" points="74.858,198.981 68.79,198.981 71.891,202.083 					"/>
					<polygon fill="#167E98" points="81.639,198.981 75.57,198.981 78.671,202.083 					"/>
					<polygon fill="#167E98" points="88.42,198.981 82.352,198.981 85.453,202.083 					"/>
					<polygon fill="#167E98" points="95.2,198.981 89.132,198.981 92.232,202.083 					"/>
					<polygon fill="#167E98" points="101.98,198.981 95.913,198.981 99.014,202.083 					"/>
					<polygon fill="#167E98" points="108.762,198.981 102.693,198.981 105.795,202.083 					"/>
					<polygon fill="#167E98" points="115.542,198.981 109.475,198.981 112.575,202.083 					"/>
					<polygon fill="#167E98" points="68.077,198.981 62.008,198.981 65.109,202.083 					"/>
					<polygon fill="#167E98" points="129.104,198.981 123.035,198.981 126.137,202.083 					"/>
					<polygon fill="#167E98" points="122.324,198.981 116.253,198.981 119.355,202.083 					"/>
				</g>
				<g>
					<polygon fill="#167E98" points="78.25,203.038 72.181,203.038 75.281,206.14 					"/>
					<polygon fill="#167E98" points="85.029,203.038 78.959,203.038 82.061,206.14 					"/>
					<polygon fill="#167E98" points="91.81,203.038 85.741,203.038 88.842,206.14 					"/>
					<polygon fill="#167E98" points="98.592,203.038 92.523,203.038 95.623,206.14 					"/>
					<polygon fill="#167E98" points="105.371,203.038 99.302,203.038 102.402,206.14 					"/>
					<polygon fill="#167E98" points="112.151,203.038 106.084,203.038 109.185,206.14 					"/>
					<polygon fill="#167E98" points="118.934,203.038 112.864,203.038 115.964,206.14 					"/>
					<polygon fill="#167E98" points="71.467,203.038 65.399,203.038 68.5,206.14 					"/>
					<polygon fill="#167E98" points="138.919,203.038 132.849,203.038 135.95,206.14 					"/>
					<polygon fill="#167E98" points="132.493,203.038 126.425,203.038 129.526,206.14 					"/>
					<polygon fill="#167E98" points="125.715,203.038 119.645,203.038 122.744,206.14 					"/>
				</g>
			</g>
		</g>
	</g>
	<g>
		<path fill="#744618" d="M79.73,109.448c-0.291-0.304-0.582-0.606-0.875-0.911C78.854,108.537,79.132,108.886,79.73,109.448z"/>
		<path fill="#744618" d="M113.407,81.472l0.27,3.222c0,0-2.7-2.708-5.534-3.996l0.945,2.964c0,0-5.264-8.248-9.719-10.439
			c0,0-3.238,4.898-4.316,9.41c0,0-0.675-1.935-0.675-3.351c0,0-1.891,2.319-2.027,4.381c0,0-3.104-3.865-3.104-7.088
			c0,0-12.219,9.913-17.254,19.934c1.507,4.067,3.756,8.788,6.861,12.029c0.294,0.305,0.584,0.607,0.875,0.911
			c2.022,1.9,7.745,6.23,19.1,7.723l-3.125-2.45c0,0,7.173,2.58,13.519,0.259c6.343-2.318,9.447-5.284,9.447-5.284
			s4.343-2.989,8.183-9.969c-0.259-0.889-0.556-1.736-0.895-2.531C120.695,84.822,113.407,81.472,113.407,81.472z"/>
		<path opacity="0.2" fill="#744618" d="M126.791,99.533c-1.611,1.749-6.943,6.9-15.691,9.459l0,0
			c-14.797,3.293-23.27-12.121-23.27-12.121c0.981,9.824,4.274,11.958,4.533,12.11c-7.454-2.943-8.987-9.255-8.987-9.255
			l-1.011,3.267c-5.873-12.952,6.883-26.419,6.883-26.419s-12.219,9.913-17.254,19.934c1.507,4.067,3.756,8.788,6.861,12.029
			c0.294,0.305,0.584,0.607,0.875,0.911c2.022,1.9,7.745,6.23,19.1,7.723l-3.125-2.45c0,0,7.173,2.58,13.519,0.259
			c6.343-2.318,9.447-5.284,9.447-5.284s4.343-2.989,8.183-9.969C126.835,99.663,126.812,99.6,126.791,99.533z"/>
	</g>
	<g>
		<path fill="#C8C1D1" d="M88.379,86.662c0,4.194,0,8.392-0.699,12.589c0-2.799,0.699-4.897,0.699-6.995
			c6.295,9.091,11.191,13.988,23.08,18.184"/>
	</g>
	<g>
		<path fill="#F19A11" d="M92.248,226.396l-3.527-3.272v-9.018c0-1.212-0.982-2.193-2.196-2.193c-1.21,0-2.193,0.981-2.193,2.193
			v8.684c-0.207,0.116-0.397,0.267-0.557,0.459l-3.147,3.757c-0.725,0.866-0.611,2.158,0.255,2.886
			c0.868,0.727,2.159,0.612,2.885-0.255l0.913-1.09v0.918c0,1.131,0.918,2.049,2.049,2.049c1.132,0,2.05-0.918,2.05-2.049v-0.699
			l0.682,0.635c0.829,0.769,2.125,0.72,2.895-0.11C93.126,228.462,93.075,227.164,92.248,226.396z"/>
		<path fill="#F19A11" d="M118.434,226.396l-3.525-3.272v-9.018c0-1.212-0.982-2.193-2.195-2.193s-2.194,0.981-2.194,2.193v8.684
			c-0.206,0.116-0.398,0.267-0.558,0.459l-3.146,3.757c-0.725,0.866-0.611,2.158,0.255,2.886c0.867,0.727,2.16,0.612,2.886-0.255
			l0.912-1.09v0.918c0,1.131,0.919,2.049,2.047,2.049c1.133,0,2.051-0.918,2.051-2.049v-0.699l0.683,0.635
			c0.829,0.769,2.126,0.72,2.896-0.11C119.313,228.462,119.263,227.164,118.434,226.396z"/>
	</g>
</g>
<rect fill="none" width="200" height="300"/>
</svg>
